\babel@toc {english}{}
\contentsline {chapter}{\numberline {\oldstylenums {1}}Syncthing}{2}{chapter.1}% 
\contentsline {section}{\numberline {\oldstylenums {\oldstylenums {1}.1}}What is Syncthing?}{3}{section.1.1}% 
\contentsline {section}{\numberline {\oldstylenums {\oldstylenums {1}.2}}Usage Example: Music Downloads}{3}{section.1.2}% 
\contentsline {section}{\numberline {\oldstylenums {\oldstylenums {1}.3}}Installation}{4}{section.1.3}% 
\contentsline {chapter}{\numberline {\oldstylenums {2}}transmission}{6}{chapter.2}% 
\contentsline {chapter}{\numberline {\oldstylenums {3}}}{7}{chapter.3}% 
\contentsfinish 
