# Fdb version 3
["bibtex build/asdf"] 1550864097 "build/asdf.aux" "build/asdf.bbl" "build/asdf" 1550864098
  "/usr/local/texlive/2018/texmf-dist/bibtex/bst/base/unsrt.bst" 1480098433 18030 1376b4b231b50c66211e47e42eda2875 ""
  "build/asdf.aux" 1550864098 1093 b8fc2f90885857e60ccc669cf9c1fe6f ""
  "build/literature.bib" 1550864096 239 9b684deb603a4800fc3045f965b37f64 ""
  (generated)
  "build/asdf.blg"
  "build/asdf.bbl"
["pdflatex"] 1550864098 "build/asdf.tex" "build/asdf.pdf" "asdf" 1550864098
  "/usr/local/texlive/2018/texmf-dist/fonts/enc/dvips/cm-super/cm-super-t1.enc" 1480098666 2971 def0b6c1f0b107b3b936def894055589 ""
  "/usr/local/texlive/2018/texmf-dist/fonts/map/fontname/texfonts.map" 1511824771 3332 103109f5612ad95229751940c61aada0 ""
  "/usr/local/texlive/2018/texmf-dist/fonts/tfm/jknappen/ec/ecbx1200.tfm" 1480098696 3584 402da0b29eafbad07963b1224b222f18 ""
  "/usr/local/texlive/2018/texmf-dist/fonts/tfm/jknappen/ec/ecbx1728.tfm" 1480098696 3584 ad49a18d8515beef6d92d4d3f197d0fd ""
  "/usr/local/texlive/2018/texmf-dist/fonts/tfm/jknappen/ec/ecrm1200.tfm" 1480098696 3584 f80ddd985bd00e29e9a6047ebd9d4781 ""
  "/usr/local/texlive/2018/texmf-dist/fonts/tfm/jknappen/ec/ecrm1440.tfm" 1480098696 3584 3169d30142b88a27d4ab0e3468e963a2 ""
  "/usr/local/texlive/2018/texmf-dist/fonts/tfm/jknappen/ec/ecrm1728.tfm" 1480098696 3584 3c76ccb63eda935a68ba65ba9da29f1a ""
  "/usr/local/texlive/2018/texmf-dist/fonts/tfm/jknappen/ec/ecrm2074.tfm" 1480098696 3584 8e2870ec7aa9776f59654942b0923f51 ""
  "/usr/local/texlive/2018/texmf-dist/fonts/tfm/jknappen/ec/ecti1200.tfm" 1480098696 3072 8b5a64dc91775463bc95e2d818524028 ""
  "/usr/local/texlive/2018/texmf-dist/fonts/tfm/jknappen/ec/ecti1728.tfm" 1480098696 3072 c4e6e6654c343ab96bdbac99d696869b ""
  "/usr/local/texlive/2018/texmf-dist/fonts/tfm/jknappen/ec/ectt1200.tfm" 1480098696 1536 487c9b46984a816c7ed238d0674595c7 ""
  "/usr/local/texlive/2018/texmf-dist/fonts/tfm/public/amsfonts/cmextra/cmex7.tfm" 1480098698 1004 54797486969f23fa377b128694d548df ""
  "/usr/local/texlive/2018/texmf-dist/fonts/tfm/public/amsfonts/cmextra/cmex8.tfm" 1480098698 988 bdf658c3bfc2d96d3c8b02cfc1c94c20 ""
  "/usr/local/texlive/2018/texmf-dist/fonts/tfm/public/amsfonts/symbols/msam10.tfm" 1480098698 916 f87d7c45f9c908e672703b83b72241a3 ""
  "/usr/local/texlive/2018/texmf-dist/fonts/tfm/public/amsfonts/symbols/msam7.tfm" 1480098698 928 2dc8d444221b7a635bb58038579b861a ""
  "/usr/local/texlive/2018/texmf-dist/fonts/tfm/public/amsfonts/symbols/msbm10.tfm" 1480098698 908 2921f8a10601f252058503cc6570e581 ""
  "/usr/local/texlive/2018/texmf-dist/fonts/tfm/public/amsfonts/symbols/msbm7.tfm" 1480098698 940 228d6584342e91276bf566bcf9716b83 ""
  "/usr/local/texlive/2018/texmf-dist/fonts/tfm/public/cm/cmex10.tfm" 1136768653 992 662f679a0b3d2d53c1b94050fdaa3f50 ""
  "/usr/local/texlive/2018/texmf-dist/fonts/tfm/public/cm/cmmi12.tfm" 1136768653 1524 4414a8315f39513458b80dfc63bff03a ""
  "/usr/local/texlive/2018/texmf-dist/fonts/tfm/public/cm/cmmi6.tfm" 1136768653 1512 f21f83efb36853c0b70002322c1ab3ad ""
  "/usr/local/texlive/2018/texmf-dist/fonts/tfm/public/cm/cmmi8.tfm" 1136768653 1520 eccf95517727cb11801f4f1aee3a21b4 ""
  "/usr/local/texlive/2018/texmf-dist/fonts/tfm/public/cm/cmr12.tfm" 1136768653 1288 655e228510b4c2a1abe905c368440826 ""
  "/usr/local/texlive/2018/texmf-dist/fonts/tfm/public/cm/cmr17.tfm" 1136768653 1292 296a67155bdbfc32aa9c636f21e91433 ""
  "/usr/local/texlive/2018/texmf-dist/fonts/tfm/public/cm/cmr6.tfm" 1136768653 1300 b62933e007d01cfd073f79b963c01526 ""
  "/usr/local/texlive/2018/texmf-dist/fonts/tfm/public/cm/cmr8.tfm" 1136768653 1292 21c1c5bfeaebccffdb478fd231a0997d ""
  "/usr/local/texlive/2018/texmf-dist/fonts/tfm/public/cm/cmsy10.tfm" 1136768653 1124 6c73e740cf17375f03eec0ee63599741 ""
  "/usr/local/texlive/2018/texmf-dist/fonts/tfm/public/cm/cmsy6.tfm" 1136768653 1116 933a60c408fc0a863a92debe84b2d294 ""
  "/usr/local/texlive/2018/texmf-dist/fonts/tfm/public/cm/cmsy8.tfm" 1136768653 1120 8b7d695260f3cff42e636090a8002094 ""
  "/usr/local/texlive/2018/texmf-dist/fonts/type1/public/cm-super/sfbx1200.pfb" 1480098737 140176 d4962f948b4cc0adf4d3dde77a128c95 ""
  "/usr/local/texlive/2018/texmf-dist/fonts/type1/public/cm-super/sfbx1728.pfb" 1480098737 139826 9213617a7cb78635fc326b859c0b2273 ""
  "/usr/local/texlive/2018/texmf-dist/fonts/type1/public/cm-super/sfrm1200.pfb" 1480098737 136101 f533469f523533d38317ab5729d00c8a ""
  "/usr/local/texlive/2018/texmf-dist/fonts/type1/public/cm-super/sfrm1440.pfb" 1480098737 131078 d96015a2fa5c350129e933ca070b2484 ""
  "/usr/local/texlive/2018/texmf-dist/fonts/type1/public/cm-super/sfrm1728.pfb" 1480098737 131438 3aa300b3e40e5c8ba7b4e5c6cebc5dd6 ""
  "/usr/local/texlive/2018/texmf-dist/fonts/type1/public/cm-super/sfrm2074.pfb" 1480098737 131290 ea265c7de37664eae04a6f91a1f7a51f ""
  "/usr/local/texlive/2018/texmf-dist/fonts/type1/public/cm-super/sfti1200.pfb" 1480098737 198221 ca5aa71411090ef358a6cc78b7458365 ""
  "/usr/local/texlive/2018/texmf-dist/fonts/type1/public/cm-super/sfti1728.pfb" 1480098737 179164 d2fc35b130efab2ed82ad3396ec43a38 ""
  "/usr/local/texlive/2018/texmf-dist/fonts/type1/public/cm-super/sftt1200.pfb" 1480098737 167085 68de377d2744a68a88fa40a1f610615a ""
  "/usr/local/texlive/2018/texmf-dist/tex/context/base/mkii/supp-pdf.mkii" 1480098806 71627 94eb9990bed73c364d7f53f960cc8c5b ""
  "/usr/local/texlive/2018/texmf-dist/tex/generic/babel-english/english.ldf" 1496785618 7008 9ff5fdcc865b01beca2b0fe4a46231d4 ""
  "/usr/local/texlive/2018/texmf-dist/tex/generic/babel/babel.def" 1539894637 73595 91912625d7236abf8c64d0d8a63ef052 ""
  "/usr/local/texlive/2018/texmf-dist/tex/generic/babel/babel.sty" 1539894637 16027 9e4c267fc8de8cd565959075c998c228 ""
  "/usr/local/texlive/2018/texmf-dist/tex/generic/babel/switch.def" 1539894637 13309 ef1118e5a12936b0f70ad148eefaf339 ""
  "/usr/local/texlive/2018/texmf-dist/tex/generic/babel/txtbabel.def" 1528235896 7435 6c566fc19b3503b2b2da8bb4550f2b58 ""
  "/usr/local/texlive/2018/texmf-dist/tex/generic/chemfig/chemfig.sty" 1520549650 301 612add931a2bba98f494a32c0aaa8ae5 ""
  "/usr/local/texlive/2018/texmf-dist/tex/generic/chemfig/chemfig.tex" 1541110122 108251 6739137ec7c7d5a131f568563fc3b328 ""
  "/usr/local/texlive/2018/texmf-dist/tex/generic/ifxetex/ifxetex.sty" 1480098815 1458 43ab4710dc82f3edeabecd0d099626b2 ""
  "/usr/local/texlive/2018/texmf-dist/tex/generic/oberdiek/gettitlestring.sty" 1480098815 8237 3b62ef1f7e2c23a328c814b3893bc11f ""
  "/usr/local/texlive/2018/texmf-dist/tex/generic/oberdiek/hobsub-generic.sty" 1536701967 185392 b99a6d53180e04300c35e18725f31231 ""
  "/usr/local/texlive/2018/texmf-dist/tex/generic/oberdiek/hobsub-hyperref.sty" 1480098815 70864 bcd5b216757bd619ae692a151d90085d ""
  "/usr/local/texlive/2018/texmf-dist/tex/generic/oberdiek/ifpdf.sty" 1536443070 1300 96620a7d94bc0ceb261d968770ce8315 ""
  "/usr/local/texlive/2018/texmf-dist/tex/generic/oberdiek/ifvtex.sty" 1480098815 6797 90b7f83b0ad46826bc16058b1e3d48df ""
  "/usr/local/texlive/2018/texmf-dist/tex/generic/pgf/basiclayer/pgfcore.code.tex" 1480098816 1006 b103be0bfc8c1682ff1fa9760697a329 ""
  "/usr/local/texlive/2018/texmf-dist/tex/generic/pgf/basiclayer/pgfcorearrows.code.tex" 1480098816 43226 167a99346bfe2676e3efcdde2d81fe45 ""
  "/usr/local/texlive/2018/texmf-dist/tex/generic/pgf/basiclayer/pgfcoreexternal.code.tex" 1480098816 19302 4f089dc590e71f7331e6d5b5ea85273b ""
  "/usr/local/texlive/2018/texmf-dist/tex/generic/pgf/basiclayer/pgfcoregraphicstate.code.tex" 1480098816 6068 edae1e768a7d8d8f0f00e953d2b0153e ""
  "/usr/local/texlive/2018/texmf-dist/tex/generic/pgf/basiclayer/pgfcoreimage.code.tex" 1480098816 7041 a891ad72049e17c4e366c40ca37b0ccb ""
  "/usr/local/texlive/2018/texmf-dist/tex/generic/pgf/basiclayer/pgfcorelayers.code.tex" 1480098816 4625 40c07e9f6f2f7c674704b3f2055560ce ""
  "/usr/local/texlive/2018/texmf-dist/tex/generic/pgf/basiclayer/pgfcoreobjects.code.tex" 1480098816 2631 7eefa6cdbefd8d4e2bad7262cf1094cd ""
  "/usr/local/texlive/2018/texmf-dist/tex/generic/pgf/basiclayer/pgfcorepathconstruct.code.tex" 1480098816 43477 81143b33d9ebafdeead07ede13372427 ""
  "/usr/local/texlive/2018/texmf-dist/tex/generic/pgf/basiclayer/pgfcorepathprocessing.code.tex" 1480098816 17436 8d99d4113be311daf23deff86991ee7d ""
  "/usr/local/texlive/2018/texmf-dist/tex/generic/pgf/basiclayer/pgfcorepathusage.code.tex" 1480098816 20772 c57e34db4aa7b1da013169d04b743eac ""
  "/usr/local/texlive/2018/texmf-dist/tex/generic/pgf/basiclayer/pgfcorepatterns.code.tex" 1480098816 9641 711f0edc22c180a5caf168b6e8970057 ""
  "/usr/local/texlive/2018/texmf-dist/tex/generic/pgf/basiclayer/pgfcorepoints.code.tex" 1480098816 34516 658a71478d21df554bce9d9cd436203a ""
  "/usr/local/texlive/2018/texmf-dist/tex/generic/pgf/basiclayer/pgfcorequick.code.tex" 1480098816 3052 e5672c657232fd63b0a9853b0746297c ""
  "/usr/local/texlive/2018/texmf-dist/tex/generic/pgf/basiclayer/pgfcorescopes.code.tex" 1480098816 16669 4ec6e40088fc6de6334b443fe2dc59f0 ""
  "/usr/local/texlive/2018/texmf-dist/tex/generic/pgf/basiclayer/pgfcoreshade.code.tex" 1480098816 21541 4cd19f8ff7dd74d5aa7d803a6397af84 ""
  "/usr/local/texlive/2018/texmf-dist/tex/generic/pgf/basiclayer/pgfcoretransformations.code.tex" 1480098816 19998 d77fef95c7369827753d17fd11be19c4 ""
  "/usr/local/texlive/2018/texmf-dist/tex/generic/pgf/basiclayer/pgfcoretransparency.code.tex" 1480098816 8943 2e2495b057f8f0035b5568394d489963 ""
  "/usr/local/texlive/2018/texmf-dist/tex/generic/pgf/frontendlayer/tikz/libraries/tikzlibraryarrows.code.tex" 1480098816 437 cf40f841f40822be6cb995f8b47112fd ""
  "/usr/local/texlive/2018/texmf-dist/tex/generic/pgf/frontendlayer/tikz/libraries/tikzlibrarydecorations.code.tex" 1480098816 5484 4bb4a5cbbd05d6f17a261b59dbd014f1 ""
  "/usr/local/texlive/2018/texmf-dist/tex/generic/pgf/frontendlayer/tikz/libraries/tikzlibrarytopaths.code.tex" 1480098816 11599 d694704a88e2f9007c996d3a6a4d629c ""
  "/usr/local/texlive/2018/texmf-dist/tex/generic/pgf/frontendlayer/tikz/tikz.code.tex" 1480098816 176652 1c2926908e2b356d454795c35385d580 ""
  "/usr/local/texlive/2018/texmf-dist/tex/generic/pgf/libraries/pgflibraryarrows.code.tex" 1480098816 31927 7acd27f90dd95ce67ad32166cd0b95ec ""
  "/usr/local/texlive/2018/texmf-dist/tex/generic/pgf/libraries/pgflibraryarrows.meta.code.tex" 1480098816 58967 21f38abaa0fb7112dd851bc45ee45849 ""
  "/usr/local/texlive/2018/texmf-dist/tex/generic/pgf/libraries/pgflibraryplothandlers.code.tex" 1480098816 32969 dbcfd5a7de6a0f7255c333ef60287d59 ""
  "/usr/local/texlive/2018/texmf-dist/tex/generic/pgf/math/pgfmath.code.tex" 1480098816 454 9e9e7c99f4da4f41698be21eaef4938e ""
  "/usr/local/texlive/2018/texmf-dist/tex/generic/pgf/math/pgfmathcalc.code.tex" 1480098816 13416 940ea6971d7a65dc440d3479939c66ae ""
  "/usr/local/texlive/2018/texmf-dist/tex/generic/pgf/math/pgfmathfloat.code.tex" 1480098816 94097 62ac62cda46eb715560dc27f9ed6e8b1 ""
  "/usr/local/texlive/2018/texmf-dist/tex/generic/pgf/math/pgfmathfunctions.base.code.tex" 1480098816 9375 5adc70f722abd29fc250d59e0694b548 ""
  "/usr/local/texlive/2018/texmf-dist/tex/generic/pgf/math/pgfmathfunctions.basic.code.tex" 1480098816 22069 7c21c42b15718ce922f36235be360490 ""
  "/usr/local/texlive/2018/texmf-dist/tex/generic/pgf/math/pgfmathfunctions.code.tex" 1480098816 8210 a7be5b52ef3d2c087b7dc3d52898b67e ""
  "/usr/local/texlive/2018/texmf-dist/tex/generic/pgf/math/pgfmathfunctions.comparison.code.tex" 1480098816 3534 c7f28fbac13616513e513efe93b8569b ""
  "/usr/local/texlive/2018/texmf-dist/tex/generic/pgf/math/pgfmathfunctions.integerarithmetics.code.tex" 1480098816 3167 7c9394e79aac27db96a92f9b2792b858 ""
  "/usr/local/texlive/2018/texmf-dist/tex/generic/pgf/math/pgfmathfunctions.misc.code.tex" 1480098816 9289 261407875b9dbb0194691c3eb893610f ""
  "/usr/local/texlive/2018/texmf-dist/tex/generic/pgf/math/pgfmathfunctions.random.code.tex" 1480098816 7078 946ddf4a7e57219b6afdbad98eb6731b ""
  "/usr/local/texlive/2018/texmf-dist/tex/generic/pgf/math/pgfmathfunctions.round.code.tex" 1480098816 2688 139c6abc86761a6190c2f4bef5d752be ""
  "/usr/local/texlive/2018/texmf-dist/tex/generic/pgf/math/pgfmathfunctions.trigonometric.code.tex" 1480098816 92284 dcf023dbaa84e6c50e11c2f79fe8cfa6 ""
  "/usr/local/texlive/2018/texmf-dist/tex/generic/pgf/math/pgfmathparser.code.tex" 1480098816 35430 046e15fbb65e74d8f0e7945f99741fdb ""
  "/usr/local/texlive/2018/texmf-dist/tex/generic/pgf/math/pgfmathutil.code.tex" 1480098816 7099 f44d505bae6c7c2b933cdd63441db4b9 ""
  "/usr/local/texlive/2018/texmf-dist/tex/generic/pgf/modules/pgfmoduledecorations.code.tex" 1480098816 71902 658cc1e13f73daec4225b8fc1c27600b ""
  "/usr/local/texlive/2018/texmf-dist/tex/generic/pgf/modules/pgfmodulematrix.code.tex" 1480098816 20934 2328bd2e04520e1ab077ac4ee13b8935 ""
  "/usr/local/texlive/2018/texmf-dist/tex/generic/pgf/modules/pgfmoduleplot.code.tex" 1480098816 16203 83cbe1220e389eeee283a6168f9a567b ""
  "/usr/local/texlive/2018/texmf-dist/tex/generic/pgf/modules/pgfmoduleshapes.code.tex" 1480098816 42906 d54376d96df1a2ae2d33fb722236d8e9 ""
  "/usr/local/texlive/2018/texmf-dist/tex/generic/pgf/systemlayer/pgf.cfg" 1480098816 978 15af626ebd3d4d790aac19170dac04f2 ""
  "/usr/local/texlive/2018/texmf-dist/tex/generic/pgf/systemlayer/pgfsys-common-pdf.def" 1480098816 5437 d91f93ed61ecdc57e119849b2d784a0b ""
  "/usr/local/texlive/2018/texmf-dist/tex/generic/pgf/systemlayer/pgfsys-pdftex.def" 1480098816 13507 809d848d9262638e1b1705a68a73c566 ""
  "/usr/local/texlive/2018/texmf-dist/tex/generic/pgf/systemlayer/pgfsys.code.tex" 1480098816 35113 2ccc50c1c9573e4bac9230d030f9c67c ""
  "/usr/local/texlive/2018/texmf-dist/tex/generic/pgf/systemlayer/pgfsysprotocol.code.tex" 1480098816 1983 b5994ebbcee17f1ba3d29bb1bd696fcf ""
  "/usr/local/texlive/2018/texmf-dist/tex/generic/pgf/systemlayer/pgfsyssoftpath.code.tex" 1480098816 7881 d459d6057e13d10ce7a227ae44b7295e ""
  "/usr/local/texlive/2018/texmf-dist/tex/generic/pgf/utilities/pgffor.code.tex" 1480098816 22211 d696ef78c12269178882d218b2cf191d ""
  "/usr/local/texlive/2018/texmf-dist/tex/generic/pgf/utilities/pgfkeys.code.tex" 1480098816 36194 e194ef4e0b396b531a3891feb4b1cc22 ""
  "/usr/local/texlive/2018/texmf-dist/tex/generic/pgf/utilities/pgfkeysfiltered.code.tex" 1480098816 33377 af391d6ad1bfcbe2278e191f48e43ba8 ""
  "/usr/local/texlive/2018/texmf-dist/tex/generic/pgf/utilities/pgfrcs.code.tex" 1480098816 2536 a3b0529d815a2759ba157b56610a6377 ""
  "/usr/local/texlive/2018/texmf-dist/tex/generic/pgf/utilities/pgfutil-common-lists.tex" 1480098816 6833 114eda2cf1d348e0e7e477a1a4dc1941 ""
  "/usr/local/texlive/2018/texmf-dist/tex/generic/pgf/utilities/pgfutil-common.tex" 1480098816 16501 ab0135765e27b6b8dae047831fe84818 ""
  "/usr/local/texlive/2018/texmf-dist/tex/generic/pgf/utilities/pgfutil-latex.def" 1480098816 5544 294baac9629ba59f675b1f2027ad7136 ""
  "/usr/local/texlive/2018/texmf-dist/tex/generic/simplekv/simplekv.tex" 1502224896 15687 bea91d500dc12f12297c8df75759fe8c ""
  "/usr/local/texlive/2018/texmf-dist/tex/generic/xkeyval/xkeyval.tex" 1480098819 19231 26434a5656c684f5ffb1f26f98006baa ""
  "/usr/local/texlive/2018/texmf-dist/tex/generic/xkeyval/xkvutils.tex" 1480098819 7677 6f5ce7c1124cad7ec57d05b2562bd8fe ""
  "/usr/local/texlive/2018/texmf-dist/tex/latex/adjustbox/adjcalc.sty" 1523308468 5608 e823b3adfbc2ea70e453a21ea6e2ee12 ""
  "/usr/local/texlive/2018/texmf-dist/tex/latex/adjustbox/adjustbox.sty" 1523308468 48240 0db81361091eaaf217c8bb468b1f45f2 ""
  "/usr/local/texlive/2018/texmf-dist/tex/latex/adjustbox/tc-pdftex.def" 1523308468 3937 c169df965da5ced57ef16a6cb7b7f816 ""
  "/usr/local/texlive/2018/texmf-dist/tex/latex/adjustbox/trimclip.sty" 1523308468 7142 42aaa49a4afcdc52e9d95e3b19f439be ""
  "/usr/local/texlive/2018/texmf-dist/tex/latex/amsfonts/amsfonts.sty" 1480098820 5949 3f3fd50a8cc94c3d4cbf4fc66cd3df1c ""
  "/usr/local/texlive/2018/texmf-dist/tex/latex/amsfonts/amssymb.sty" 1480098820 13829 94730e64147574077f8ecfea9bb69af4 ""
  "/usr/local/texlive/2018/texmf-dist/tex/latex/amsfonts/umsa.fd" 1480098820 961 6518c6525a34feb5e8250ffa91731cff ""
  "/usr/local/texlive/2018/texmf-dist/tex/latex/amsfonts/umsb.fd" 1480098820 961 d02606146ba5601b5645f987c92e6193 ""
  "/usr/local/texlive/2018/texmf-dist/tex/latex/amsmath/amsbsy.sty" 1523134290 2211 ca7ce284ab93c8eecdc6029dc5ccbd73 ""
  "/usr/local/texlive/2018/texmf-dist/tex/latex/amsmath/amsgen.sty" 1523134290 4161 7f6eb9092061a11f87d08ed13515b48d ""
  "/usr/local/texlive/2018/texmf-dist/tex/latex/amsmath/amsmath.sty" 1523134290 84354 7292177bb735c466b78634ee4efd537e ""
  "/usr/local/texlive/2018/texmf-dist/tex/latex/amsmath/amsopn.sty" 1523134290 4116 32e6abd27229755a83a8b7f18e583890 ""
  "/usr/local/texlive/2018/texmf-dist/tex/latex/amsmath/amstext.sty" 1523134290 2432 8ff93b1137020e8f21930562a874ae66 ""
  "/usr/local/texlive/2018/texmf-dist/tex/latex/base/article.cls" 1523050425 19823 fcbc01552b07b608574cbf8e1977e0c0 ""
  "/usr/local/texlive/2018/texmf-dist/tex/latex/base/fontenc.sty" 1523050425 4573 ae83473dfe6aea3508ab88d22c4457b2 ""
  "/usr/local/texlive/2018/texmf-dist/tex/latex/base/inputenc.sty" 1523050425 5052 f2525dfd6e503dc383e90b568c6c9f02 ""
  "/usr/local/texlive/2018/texmf-dist/tex/latex/base/size12.clo" 1523050425 8305 4e2a90a380a17c0472dd191689c67cbc ""
  "/usr/local/texlive/2018/texmf-dist/tex/latex/base/t1cmtt.fd" 1523050425 2446 898e9a1961d873c4471b5d9a683366d0 ""
  "/usr/local/texlive/2018/texmf-dist/tex/latex/base/t1enc.def" 1523050425 10008 3208fbcdd7b3f5dd0dda02e6507bf38c ""
  "/usr/local/texlive/2018/texmf-dist/tex/latex/blindtext/blindtext.sty" 1480098823 47295 de48b7f8ebf4b54709a2f6b2c7106dd5 ""
  "/usr/local/texlive/2018/texmf-dist/tex/latex/booktabs/booktabs.sty" 1480098823 5869 94335281ffcab47f341cf07ea8220e30 ""
  "/usr/local/texlive/2018/texmf-dist/tex/latex/caption/caption.sty" 1539032178 68576 86bbc6bd5a409b3c353fccc1a815fa5b ""
  "/usr/local/texlive/2018/texmf-dist/tex/latex/caption/caption3.sty" 1538606650 68510 943558eecf41da4e76fc614fd7f5deff ""
  "/usr/local/texlive/2018/texmf-dist/tex/latex/caption/ltcaption.sty" 1538606650 7103 69d108d6f68aad0b59c34ccdaa701351 ""
  "/usr/local/texlive/2018/texmf-dist/tex/latex/collectbox/collectbox.sty" 1480098825 9116 495d44b5a3e7be0c46c5d1f053f457f0 ""
  "/usr/local/texlive/2018/texmf-dist/tex/latex/fancyhdr/fancyhdr.sty" 1498861448 10663 d7fcc0dc4f35e8998b8cfeef8407d37d ""
  "/usr/local/texlive/2018/texmf-dist/tex/latex/float/float.sty" 1480098828 6749 16d2656a1984957e674b149555f1ea1d ""
  "/usr/local/texlive/2018/texmf-dist/tex/latex/geometry/geometry.sty" 1525727744 41645 0653033a985e06c69a2a9cea9a95e31a ""
  "/usr/local/texlive/2018/texmf-dist/tex/latex/graphbox/graphbox.sty" 1516232766 4708 8323a190ff13831e99a665fbd3b61e68 ""
  "/usr/local/texlive/2018/texmf-dist/tex/latex/graphics-cfg/color.cfg" 1480098830 1213 620bba36b25224fa9b7e1ccb4ecb76fd ""
  "/usr/local/texlive/2018/texmf-dist/tex/latex/graphics-cfg/graphics.cfg" 1480098830 1224 978390e9c2234eab29404bc21b268d1e ""
  "/usr/local/texlive/2018/texmf-dist/tex/latex/graphics-def/pdftex.def" 1515537368 17334 520b9b85ad8a2a48eda3f643e27a5179 ""
  "/usr/local/texlive/2018/texmf-dist/tex/latex/graphics/graphics.sty" 1523134385 15272 5a97061616e0c8b2aa79c6615ff769f4 ""
  "/usr/local/texlive/2018/texmf-dist/tex/latex/graphics/graphicx.sty" 1523134385 9063 d0a305975932762117cd1f06a582f896 ""
  "/usr/local/texlive/2018/texmf-dist/tex/latex/graphics/keyval.sty" 1523134385 2591 6404d0c7d28505fb38ce0d86c2e28ae7 ""
  "/usr/local/texlive/2018/texmf-dist/tex/latex/graphics/trig.sty" 1523134385 3977 cb9221976ed8a183afad65b59aa8629a ""
  "/usr/local/texlive/2018/texmf-dist/tex/latex/hyperref/hpdftex.def" 1538342598 51737 d352883b1cf2d309b61f0be421ee3009 ""
  "/usr/local/texlive/2018/texmf-dist/tex/latex/hyperref/hyperref.sty" 1538342598 236385 0c1f990d0a1c996b78144392442091fb ""
  "/usr/local/texlive/2018/texmf-dist/tex/latex/hyperref/nameref.sty" 1480098831 12949 81e4e808884a8f0e276b69410e234656 ""
  "/usr/local/texlive/2018/texmf-dist/tex/latex/hyperref/pd1enc.def" 1538342598 14098 546dd05d655ce69bf51ef180b7d8a1b1 ""
  "/usr/local/texlive/2018/texmf-dist/tex/latex/ifoddpage/ifoddpage.sty" 1480098831 2148 0426cd8bb94163c1e23726d0c15e2c21 ""
  "/usr/local/texlive/2018/texmf-dist/tex/latex/lastpage/lastpage.sty" 1480098832 9922 eb7d00b99f0f5207f71a5cdcbafceac1 ""
  "/usr/local/texlive/2018/texmf-dist/tex/latex/latexconfig/epstopdf-sys.cfg" 1480098833 678 4792914a8f45be57bb98413425e4c7af ""
  "/usr/local/texlive/2018/texmf-dist/tex/latex/latexconfig/hyperref.cfg" 1480098833 235 6031e5765137be07eed51a510b2b8fb7 ""
  "/usr/local/texlive/2018/texmf-dist/tex/latex/lipsum/lipsum.sty" 1480098833 103491 f3a8d28ba533bcdb24167b15de14ff22 ""
  "/usr/local/texlive/2018/texmf-dist/tex/latex/listings/listings.cfg" 1536009181 1828 dcfaf5610ea22a61c7baac6f2ca3cb43 ""
  "/usr/local/texlive/2018/texmf-dist/tex/latex/listings/listings.sty" 1536009181 80394 a25e563baccecba00b03b4a462eb4141 ""
  "/usr/local/texlive/2018/texmf-dist/tex/latex/listings/lstlang1.sty" 1536009181 203555 e607ed8f3cb83d0d64c452db0f937212 ""
  "/usr/local/texlive/2018/texmf-dist/tex/latex/listings/lstmisc.sty" 1536009181 77021 1c90ba86bdf6da80a6b661f51d7f0175 ""
  "/usr/local/texlive/2018/texmf-dist/tex/latex/ms/everyshi.sty" 1480098835 3878 6aa7c08ff2621006e0603349e40a30a8 ""
  "/usr/local/texlive/2018/texmf-dist/tex/latex/oberdiek/auxhook.sty" 1480098836 3834 4363110eb0ef1eb2b71c8fcbcdb6c357 ""
  "/usr/local/texlive/2018/texmf-dist/tex/latex/oberdiek/epstopdf-base.sty" 1480098836 12095 5337833c991d80788a43d3ce26bd1c46 ""
  "/usr/local/texlive/2018/texmf-dist/tex/latex/oberdiek/grfext.sty" 1480098836 7075 2fe3d848bba95f139de11ded085e74aa ""
  "/usr/local/texlive/2018/texmf-dist/tex/latex/oberdiek/kvoptions.sty" 1480098836 22417 1d9df1eb66848aa31b18a593099cf45c ""
  "/usr/local/texlive/2018/texmf-dist/tex/latex/oberdiek/rerunfilecheck.sty" 1480098836 9581 023642318cef9f4677efe364de1e2a27 ""
  "/usr/local/texlive/2018/texmf-dist/tex/latex/pgf/basiclayer/pgf.sty" 1480098837 1197 8a80cdde14696a9198f1793a55dcf332 ""
  "/usr/local/texlive/2018/texmf-dist/tex/latex/pgf/basiclayer/pgfcore.sty" 1480098837 410 5bf12ea7330e5f12c445332a4fe9a263 ""
  "/usr/local/texlive/2018/texmf-dist/tex/latex/pgf/compatibility/pgfcomp-version-0-65.sty" 1480098837 21115 facf03b7dbe5ea2f5f1dce1ac84b5d05 ""
  "/usr/local/texlive/2018/texmf-dist/tex/latex/pgf/compatibility/pgfcomp-version-1-18.sty" 1480098837 1091 d9163d29def82ee90370c8a63667742c ""
  "/usr/local/texlive/2018/texmf-dist/tex/latex/pgf/frontendlayer/tikz.sty" 1480098837 339 592cf35cba3d400082b8a9a5d0199d70 ""
  "/usr/local/texlive/2018/texmf-dist/tex/latex/pgf/math/pgfmath.sty" 1480098837 306 0796eafca5e159e6ec2167a6d22d81b1 ""
  "/usr/local/texlive/2018/texmf-dist/tex/latex/pgf/systemlayer/pgfsys.sty" 1480098837 443 0b2e781830192df35c0fd357cf13e26e ""
  "/usr/local/texlive/2018/texmf-dist/tex/latex/pgf/utilities/pgffor.sty" 1480098837 348 8927fde343487e003b01a4c2ca34073b ""
  "/usr/local/texlive/2018/texmf-dist/tex/latex/pgf/utilities/pgfkeys.sty" 1480098837 274 4cad6e665cc93ac2ac979039a94fa1e1 ""
  "/usr/local/texlive/2018/texmf-dist/tex/latex/pgf/utilities/pgfrcs.sty" 1480098837 325 2bcd023400636339210573e2b3ee298b ""
  "/usr/local/texlive/2018/texmf-dist/tex/latex/setspace/setspace.sty" 1480098838 22913 a27d7908fc6f0385466454a966a316eb ""
  "/usr/local/texlive/2018/texmf-dist/tex/latex/subfigure/subfigure.cfg" 1480098839 2062 a0e7d66e09e508f51289a656aec06ed2 ""
  "/usr/local/texlive/2018/texmf-dist/tex/latex/subfigure/subfigure.sty" 1480098839 15188 91281c7ddbccfa54a8e0c3b56ab5aa72 ""
  "/usr/local/texlive/2018/texmf-dist/tex/latex/tools/array.sty" 1525471425 13555 1c149904152e53130811b31763000c97 ""
  "/usr/local/texlive/2018/texmf-dist/tex/latex/tools/longtable.sty" 1523050425 12081 a8103ee8653c06c3c5b3fb138f20b5e5 ""
  "/usr/local/texlive/2018/texmf-dist/tex/latex/tools/xspace.sty" 1523050425 4542 5251001fb2c96205905dbac86c51c5ab ""
  "/usr/local/texlive/2018/texmf-dist/tex/latex/url/url.sty" 1480098842 12796 8edb7d69a20b857904dd0ea757c14ec9 ""
  "/usr/local/texlive/2018/texmf-dist/tex/latex/varwidth/varwidth.sty" 1480098842 10894 d359a13923460b2a73d4312d613554c8 ""
  "/usr/local/texlive/2018/texmf-dist/tex/latex/xcolor/xcolor.sty" 1480098843 55589 34128738f682d033422ca125f82e5d62 ""
  "/usr/local/texlive/2018/texmf-dist/tex/latex/xkeyval/xkeyval.sty" 1480098843 4962 9c1069474ff71dbc47d5006555e352d3 ""
  "/usr/local/texlive/2018/texmf-dist/web2c/texmf.cnf" 1522066949 33362 cf75436e19743e94a92a6b1b9183c434 ""
  "/usr/local/texlive/2018/texmf-var/fonts/map/pdftex/updmap/pdftex.map" 1541346103 2972202 d2478ef55f05db3aa1145f80f3f76ab8 ""
  "/usr/local/texlive/2018/texmf-var/web2c/pdftex/pdflatex.fmt" 1541346146 4222486 db24aa88b2bc7fe8b3719ae5271fa62a ""
  "/usr/local/texlive/2018/texmf.cnf" 1541346094 455 5b996dcaa0eb4ef14a83b026bc0a008c ""
  "build/../../latex-include/chemicalMacros.tex" 1550859618 2104 8534db19666247af2885b6c3958e873f ""
  "build/../../latex-include/lstsetup.tex" 1550859168 4424 a3cd261c16eda7491bb528d2daa3b1ce ""
  "build/../../latex-include/preamble.tex" 1550863790 2416 3c05f0f151091440a0886f6036bff22d ""
  "build/asdf.aux" 1550864098 1093 b8fc2f90885857e60ccc669cf9c1fe6f ""
  "build/asdf.bbl" 1550864097 202 7039da169fec063fb79a75b76a436fdb "bibtex build/asdf"
  "build/asdf.out" 1550864098 50 f88a78b904685b41a896fcd4f218a23d ""
  "build/asdf.tex" 1550864096 1564 8c6abccca86a15cb5cc29f8393dca927 ""
  (generated)
  "build/asdf.pdf"
  "build/asdf.log"
  "build/asdf.aux"
  "build/asdf.out"
