\relax 
\providecommand\hyper@newdestlabel[2]{}
\providecommand\HyperFirstAtBeginDocument{\AtBeginDocument}
\HyperFirstAtBeginDocument{\ifx\hyper@anchor\@undefined
\global\let\oldnewlabel\newlabel
\gdef\newlabel#1#2{\newlabelxx{#1}#2}
\gdef\newlabelxx#1#2#3#4#5#6{\oldnewlabel{#1}{{#2}{#3}}}
\AtEndDocument{\ifx\hyper@anchor\@undefined
\let\newlabel\oldnewlabel
\fi}
\fi}
\global\let\hyper@last\relax 
\gdef\HyperFirstAtBeginDocument#1{#1}
\providecommand\HyField@AuxAddToFields[1]{}
\providecommand\HyField@AuxAddToCoFields[2]{}
\@writefile{toc}{\contentsline {section}{\numberline {1}Work Experience}{1}{section.1}\protected@file@percent }
\@writefile{toc}{\contentsline {section}{\numberline {1}Voluntary Work Experience}{1}{section.1}\protected@file@percent }
\@writefile{toc}{\contentsline {section}{\numberline {2}Education}{2}{section.2}\protected@file@percent }
\@writefile{toc}{\contentsline {section}{\numberline {3}Swiss Army}{2}{section.3}\protected@file@percent }
\@writefile{toc}{\contentsline {section}{\numberline {2}Computer Skills\footnote {<<Beginner>>: I can do basic stuff with it, but most of the things will have to be looked up. <<Intermediate>>: I understand the concepts and know the syntax well, but some functions will have to be looked up. <<Expert>>: I am very productive and elegant in that language/OS/tool and know the ways it is supposed to be used.}}{2}{section.2}\protected@file@percent }
\gdef \@abspage@last{2}
