Luca,Luca Dahle,Präsi,L
Julia,Julia Fähnrich,Vize \\\\\\& IA,S
Sophie,Sophie Eisenring,Komu,S
Fran,Francesca Burlini,Komu,S
Alex,Alexander Schoch,IA,S
Stella,Stella Harper,HoPo,S
Alex,Alexander Beck,GS,M
Theo,Theo Wollschlegel,Quästur,M
Manu,Manuel Hässig,HoPo,L
Kolja,Kolja Frahm,HoPo,L
JP,Jan-Philipp Kirsch,Infra,L
Robin,Robin Krampl,Projekti,XL

Lenka,Lenka Hagnauer,BuHa,S
Sandro,Sandro Santoro,BAS,L
Barbara,Barbara Odermatt,Sponsoring,L
Tina,Tina Azigbo,Sekretariat,L
Leilah,Leilah Semeraro,ISG,M
Ronan,Ronan Lindörfer,ISG,L
Markus,Markus Niese,Fräsi,L
Micha,Micha Bigler,Fräsi,L
Michal,Michal Sudwoj,MR-Präsi,S
Sandro,Sandro Lutz,ITA,M
Lukas,Lukas Reichart,ITA,L
Frifri,Friedrich Ginnold,ITA,L
Philipp,Philipp Phanaleux,ITA,L
JP,Jan-Philipp Kirsch ITA,ITA,L
Max,Max Schrimpf,ITA,XL
Kukka,Kukka Ilmanen,FinA,M
Daniel,Daniel Solano,FinA,M
Linn,Linn Hille-Dahl,FinA,M
David,David Blaser,FinA,M
Daniel,Daniel Westholm,FinA,L
Michael,Michael Zahler,FinA,XL
Lukas,Lukas Böke,FinA,XXL

