<?xml version='1.0' encoding='UTF-8'?>
<!-- This file was generated by dvisvgm 2.9.1 -->
<svg version='1.1' xmlns='http://www.w3.org/2000/svg' xmlns:xlink='http://www.w3.org/1999/xlink' width='344.711pt' height='181.614pt' viewBox='0 -181.614 344.711 181.614'>
<g id='page1'>
<g transform='matrix(1 0 0 -1 0 0)'>
<path d='M112.89666 151.321966H116.03479V166.4263C116.03479 168.8532 115.78385 172.117 115.61635 174.5435H115.78385L117.95947 168.3095L123.1476 154.08353H125.4488L130.6373 168.3095L132.8129 174.5435H132.9804C132.8129 172.117 132.5201 168.8532 132.5201 166.4263V151.321966H135.7835V178.7695H131.5576L126.3695 164.1251C125.7001 162.2423 125.156 160.27603 124.4867 158.3929H124.3192C123.6498 160.27603 123.0223 162.2423 122.3526 164.1251L117.08072 178.7695H112.89666V151.321966ZM147.6681 150.819779C150.2203 150.819779 152.4797 152.158841 154.4044 153.74884H154.53L154.8228 151.321966H157.6681V163.7904C157.6681 168.8532 155.576 172.1585 150.5969 172.1585C147.3335 172.1585 144.4881 170.736 142.6053 169.5226L143.9444 167.1379C145.5341 168.2257 147.6681 169.3135 150.0113 169.3135C153.3585 169.3135 154.1953 166.8029 154.1953 164.2088C145.5341 163.2467 141.7266 161.02915 141.7266 156.59384C141.7266 152.95384 144.2791 150.819779 147.6681 150.819779ZM148.6722 153.58134C146.6638 153.58134 145.0741 154.54384 145.0741 156.84509C145.0741 159.43915 147.4169 161.11259 154.1953 161.9495V156.30103C152.2288 154.54384 150.6388 153.58134 148.6722 153.58134ZM164.0708 151.321966H167.5017V164.3763C168.8824 167.8073 170.9327 169.0626 172.6483 169.0626C173.4849 169.0626 173.9452 168.937 174.6146 168.7276L175.2842 171.7404C174.6146 172.0332 173.987 172.1585 173.1083 172.1585C170.8071 172.1585 168.7152 170.527 167.3342 167.9745H167.2089L166.9161 171.6567H164.0708V151.321966ZM178.5903 151.321966H181.9794V156.67759L185.7869 161.11259L191.7285 151.321966H195.4941L187.7535 163.4976L194.5735 171.6567H190.766L182.105 160.9454H181.9794V181.1126H178.5903V151.321966Z' fill='#fff'/>
<path d='M204.6517 150.819779C207.4552 150.819779 209.464 152.284154 211.346 154.50197H211.472L211.765 151.321966H214.61V171.6567H211.179V157.22165C209.254 154.83665 207.7899 153.79072 205.698 153.79072C203.0202 153.79072 201.8905 155.42228 201.8905 159.22978V171.6567H198.4177V158.76978C198.4177 153.58134 200.3424 150.819779 204.6517 150.819779ZM226.787 150.819779C231.599 150.819779 234.235 153.58134 234.235 156.88665C234.235 160.73603 230.971 161.9495 228.042 163.0373C225.741 163.916 223.523 164.6273 223.523 166.552C223.523 168.1001 224.695 169.4807 227.247 169.4807C229.046 169.4807 230.511 168.7276 231.892 167.6817L233.523 169.8573C231.975 171.1126 229.757 172.1585 227.205 172.1585C222.812 172.1585 220.218 169.6482 220.218 166.3848C220.218 162.9538 223.398 161.5729 226.285 160.52697C228.502 159.69009 230.929 158.76978 230.929 156.67759C230.929 154.9204 229.59 153.49759 226.912 153.49759C224.486 153.49759 222.687 154.50197 220.929 155.92447L219.214 153.62322C221.138 152.033216 223.9 150.819779 226.787 150.819779Z' fill='#fff'/>
<path d='M134.9896 97.523009H138.46241V109.8243H148.9227V112.753H138.46241V122.0418H150.8055V124.9705H134.9896V97.523009Z' fill='#fff'/>
<path d='M154.4861 97.523009H157.917V110.5774C159.2976 114.0083 161.348 115.2636 163.0636 115.2636C163.9001 115.2636 164.3605 115.138 165.0298 114.9286L165.6995 117.9414C165.0298 118.2343 164.4023 118.3596 163.5236 118.3596C161.2223 118.3596 159.1305 116.728 157.7495 114.1755H157.6242L157.3314 117.8577H154.4861V97.523009Z' fill='#fff'/>
<path d='M172.6876 97.020821C175.2398 97.020821 177.4991 98.359884 179.4238 99.94988H179.5494L179.8423 97.523009H182.6876V109.9914C182.6876 115.0543 180.5954 118.3596 175.6163 118.3596C172.3529 118.3596 169.5076 116.9371 167.6248 115.7236L168.9638 113.3389C170.5535 114.4268 172.6876 115.5146 175.0307 115.5146C178.3779 115.5146 179.2148 113.0039 179.2148 110.4099C170.5535 109.4477 166.746 107.2302 166.746 102.79488C166.746 99.15488 169.2985 97.020821 172.6876 97.020821ZM173.6916 99.78238C171.6832 99.78238 170.0935 100.74488 170.0935 103.04613C170.0935 105.6402 172.4363 107.31363 179.2148 108.1505V102.50207C177.2482 100.74488 175.6582 99.78238 173.6916 99.78238ZM171.5579 122.0836C172.7294 122.0836 173.6079 123.0039 173.6079 124.1755S172.7294 126.2677 171.5579 126.2677C170.3444 126.2677 169.4657 125.3471 169.4657 124.1755S170.3444 122.0836 171.5579 122.0836ZM179.5913 122.0836C180.8048 122.0836 181.6832 123.0039 181.6832 124.1755S180.8048 126.2677 179.5913 126.2677C178.4198 126.2677 177.541 125.3471 177.541 124.1755S178.4198 122.0836 179.5913 122.0836ZM194.404 97.020821C199.2159 97.020821 201.8518 99.78238 201.8518 103.0877C201.8518 106.93707 198.588 108.1505 195.6593 109.2383C193.358 110.1171 191.1405 110.8283 191.1405 112.753C191.1405 114.3011 192.3121 115.6818 194.8643 115.6818C196.6633 115.6818 198.1277 114.9286 199.5087 113.8827L201.1402 116.0583C199.5924 117.3136 197.3746 118.3596 194.8224 118.3596C190.4293 118.3596 187.8349 115.8493 187.8349 112.5858C187.8349 109.1549 191.0149 107.7739 193.9018 106.72801C196.1196 105.89113 198.5462 104.97082 198.5462 102.87863C198.5462 101.12145 197.2074 99.69863 194.5296 99.69863C192.1027 99.69863 190.3037 100.70301 188.5462 102.12551L186.8308 99.82426C188.7555 98.234259 191.5171 97.020821 194.404 97.020821ZM206.6224 97.523009H210.0533V117.8577H206.6224V97.523009ZM208.3796 122.0418C209.7187 122.0418 210.7646 122.9621 210.7646 124.2593C210.7646 125.5983 209.7187 126.4768 208.3796 126.4768C207.0408 126.4768 205.9949 125.5983 205.9949 124.2593C205.9949 122.9621 207.0408 122.0418 208.3796 122.0418Z' fill='#fff'/>
<path d='M88.740556 28.058012H114.35176V32.471756H102.8518C100.80028 32.471756 98.37592 32.285204 96.200248 32.09864C105.58684 41.92052 112.36276 49.31804 112.36276 56.77772C112.36276 63.80204 107.8246 68.46428 100.4896 68.46428C95.329936 68.46428 91.786492 66.03992 88.491808 62.43452L91.413688 59.51264C93.71368 62.18588 96.573064 64.2992 99.86776 64.2992C104.90308 64.2992 107.3896 61.06676 107.3896 56.52896C107.3896 50.12612 100.67584 42.97736 88.740556 31.103948V28.058012Z' fill='#fff'/>
<path d='M145.921812 74.992184C131.179682 74.992184 119.191405 62.914063 119.191405 48.058532C119.191405 35.628884 127.597651 25.14056 138.9765 22.054664V22.093736C140.582016 21.706976 142.312536 21.531284 144.031308 21.531284C147.675828 21.531284 151.249992 22.324208 153.410172 23.527388C156.808644 25.421852 159.101616 27.984368 160.22652 31.14458C161.433528 34.531304 161.304696 37.867208 159.851508 41.058572C159.085908 42.726524 157.886688 44.42576 156.265596 46.128956L152.875044 49.675796C149.480532 53.218808 148.269564 54.8828 147.839904 55.683644C147.339888 56.56646 146.85162 57.882764 147.316392 59.187452C147.574188 59.9219 148.355496 61.292984 150.68754 62.320314C152.050836 62.921877 152.7969 63.039054 153.097596 63.066404L153.84762 65.999998C149.738328 67.226556 141.230532 67.101565 137.378904 58.089872C136.24608 55.441424 136.191432 52.546928 137.222616 49.730444C138.136716 47.246072 140.070252 44.47262 143.140572 41.249972L146.062524 38.171864C148.19142 35.949248 148.976556 34.816424 149.253888 34.265588C149.789016 33.187544 149.828088 32.035184 149.367144 30.746072C148.945272 29.55464 148.324212 28.812536 147.164064 28.101584C146.519508 27.707036 143.066388 25.800824 138.339864 27.167948V27.16412C129.589848 30.289088 123.312496 38.62502 123.312496 48.45308C123.312496 60.941468 133.433556 71.062502 145.921812 71.062502C158.4102 71.062502 168.535128 60.941468 168.535128 48.45308C168.535128 44.121104 167.316372 40.074248 165.203184 36.636704L168.300828 33.35162C171.050784 37.585916 172.65234 42.632804 172.65234 48.058532C172.65234 62.914063 160.6641 74.992184 145.921812 74.992184Z' fill='#009fe3'/>
<path d='M173.082562 21.220776H176.81256L193.41012 75.30324H189.6804L173.082562 21.220776Z' fill='#fff'/>
<path d='M199.14958 28.058012H224.76088V32.471756H213.2608C211.20928 32.471756 208.78492 32.285204 206.609272 32.09864C215.99584 41.92052 222.77176 49.31804 222.77176 56.77772C222.77176 63.80204 218.2336 68.46428 210.8986 68.46428C205.73896 68.46428 202.195516 66.03992 198.900832 62.43452L201.822712 59.51264C204.122704 62.18588 206.982088 64.2992 210.27676 64.2992C215.31208 64.2992 217.7986 61.06676 217.7986 56.52896C217.7986 50.12612 211.08484 42.97736 199.14958 31.103948V28.058012ZM232.47088 28.058012H254.84956V32.285204H246.64432V67.71836H242.72776C240.55204 66.413 237.9412 65.41832 234.3358 64.79672V61.50212H241.54672V32.285204H232.47088V28.058012Z' fill='#fff'/>
</g>
</g>
</svg>