<?xml version='1.0' encoding='UTF-8'?>
<!-- This file was generated by dvisvgm 2.9.1 -->
<svg version='1.1' xmlns='http://www.w3.org/2000/svg' xmlns:xlink='http://www.w3.org/1999/xlink' width='344.711pt' height='179.271pt' viewBox='0 -179.271 344.711 179.271'>
<g id='page1'>
<g transform='matrix(1 0 0 -1 0 0)'>
<path d='M137.45859 151.321966H140.93141V163.6232H151.3917V166.552H140.93141V175.8407H153.2745V178.7695H137.45859V151.321966Z' fill='#fff'/>
<path d='M156.9551 151.321966H160.386V164.3763C161.7666 167.8073 163.817 169.0626 165.5326 169.0626C166.3691 169.0626 166.8295 168.937 167.4988 168.7276L168.1685 171.7404C167.4988 172.0332 166.8713 172.1585 165.9926 172.1585C163.6913 172.1585 161.5995 170.527 160.2185 167.9745H160.0932L159.8004 171.6567H156.9551V151.321966Z' fill='#fff'/>
<path d='M175.1566 150.819779C177.7088 150.819779 179.9681 152.158841 181.8928 153.74884H182.0184L182.3112 151.321966H185.1566V163.7904C185.1566 168.8532 183.0644 172.1585 178.0853 172.1585C174.8219 172.1585 171.9766 170.736 170.0937 169.5226L171.4328 167.1379C173.0225 168.2257 175.1566 169.3135 177.4997 169.3135C180.8469 169.3135 181.6837 166.8029 181.6837 164.2088C173.0225 163.2467 169.215 161.02915 169.215 156.59384C169.215 152.95384 171.7675 150.819779 175.1566 150.819779ZM176.1606 153.58134C174.1522 153.58134 172.5625 154.54384 172.5625 156.84509C172.5625 159.43915 174.9053 161.11259 181.6837 161.9495V156.30103C179.7172 154.54384 178.1272 153.58134 176.1606 153.58134ZM191.5592 151.321966H194.9902V166.0498C197.0405 168.1001 198.463 169.1879 200.5548 169.1879C203.2327 169.1879 204.4042 167.5563 204.4042 163.7485V151.321966H207.8352V164.2088C207.8352 169.3973 205.9105 172.1585 201.643 172.1585C198.8395 172.1585 196.7473 170.6523 194.8227 168.7276H194.6973L194.4045 171.6567H191.5592V151.321966Z' fill='#fff'/>
<path d='M124.08963 97.523009H127.56244V106.22582L132.2906 111.7908L140.4912 97.523009H144.3824L134.4662 114.5105L143.0437 124.9705H139.1106L127.68807 111.2049H127.56244V124.9705H124.08963V97.523009Z' fill='#fff'/>
<path d='M155.5964 97.020821C160.5755 97.020821 165.0108 100.91207 165.0108 107.6486C165.0108 114.4686 160.5755 118.3596 155.5964 118.3596C150.6174 118.3596 146.1824 114.4686 146.1824 107.6486C146.1824 100.91207 150.6174 97.020821 155.5964 97.020821ZM155.5964 99.86613C152.1236 99.86613 149.7389 103.00426 149.7389 107.6486C149.7389 112.3346 152.1236 115.5146 155.5964 115.5146C159.1111 115.5146 161.4542 112.3346 161.4542 107.6486C161.4542 103.00426 159.1111 99.86613 155.5964 99.86613ZM170.3675 97.523009H173.7985V112.2508C175.6813 114.343 177.3969 115.3889 178.9031 115.3889C181.4972 115.3889 182.7106 113.7574 182.7106 109.9496V97.523009H186.1416V112.2508C188.0244 114.343 189.6563 115.3889 191.246 115.3889C193.7985 115.3889 195.0119 113.7574 195.0119 109.9496V97.523009H198.4428V110.4099C198.4428 115.5983 196.4344 118.3596 192.2503 118.3596C189.7816 118.3596 187.6897 116.7699 185.5556 114.4686C184.7188 116.8952 183.0453 118.3596 179.9491 118.3596C177.5222 118.3596 175.3885 116.8533 173.631 114.9286H173.5056L173.2128 117.8577H170.3675V97.523009ZM210.9967 97.020821C213.8001 97.020821 215.8085 98.485196 217.6913 100.70301H217.817L218.1098 97.523009H220.955V117.8577H217.5238V103.4227C215.5992 101.0377 214.1348 99.99176 212.0429 99.99176C209.3651 99.99176 208.2354 101.62332 208.2354 105.43082V117.8577H204.7626V104.97082C204.7626 99.78238 206.6873 97.020821 210.9967 97.020821Z' fill='#fff'/>
<path d='M88.740556 28.058012H114.35176V32.471756H102.8518C100.80028 32.471756 98.37592 32.285204 96.200248 32.09864C105.58684 41.92052 112.36276 49.31804 112.36276 56.77772C112.36276 63.80204 107.8246 68.46428 100.4896 68.46428C95.329936 68.46428 91.786492 66.03992 88.491808 62.43452L91.413688 59.51264C93.71368 62.18588 96.573064 64.2992 99.86776 64.2992C104.90308 64.2992 107.3896 61.06676 107.3896 56.52896C107.3896 50.12612 100.67584 42.97736 88.740556 31.103948V28.058012Z' fill='#fff'/>
<path d='M145.921812 74.992184C131.179682 74.992184 119.191405 62.914063 119.191405 48.058532C119.191405 35.628884 127.597651 25.14056 138.9765 22.054664V22.093736C140.582016 21.706976 142.312536 21.531284 144.031308 21.531284C147.675828 21.531284 151.249992 22.324208 153.410172 23.527388C156.808644 25.421852 159.101616 27.984368 160.22652 31.14458C161.433528 34.531304 161.304696 37.867208 159.851508 41.058572C159.085908 42.726524 157.886688 44.42576 156.265596 46.128956L152.875044 49.675796C149.480532 53.218808 148.269564 54.8828 147.839904 55.683644C147.339888 56.56646 146.85162 57.882764 147.316392 59.187452C147.574188 59.9219 148.355496 61.292984 150.68754 62.320314C152.050836 62.921877 152.7969 63.039054 153.097596 63.066404L153.84762 65.999998C149.738328 67.226556 141.230532 67.101565 137.378904 58.089872C136.24608 55.441424 136.191432 52.546928 137.222616 49.730444C138.136716 47.246072 140.070252 44.47262 143.140572 41.249972L146.062524 38.171864C148.19142 35.949248 148.976556 34.816424 149.253888 34.265588C149.789016 33.187544 149.828088 32.035184 149.367144 30.746072C148.945272 29.55464 148.324212 28.812536 147.164064 28.101584C146.519508 27.707036 143.066388 25.800824 138.339864 27.167948V27.16412C129.589848 30.289088 123.312496 38.62502 123.312496 48.45308C123.312496 60.941468 133.433556 71.062502 145.921812 71.062502C158.4102 71.062502 168.535128 60.941468 168.535128 48.45308C168.535128 44.121104 167.316372 40.074248 165.203184 36.636704L168.300828 33.35162C171.050784 37.585916 172.65234 42.632804 172.65234 48.058532C172.65234 62.914063 160.6641 74.992184 145.921812 74.992184Z' fill='#009fe3'/>
<path d='M173.082562 21.220776H176.81256L193.41012 75.30324H189.6804L173.082562 21.220776Z' fill='#fff'/>
<path d='M199.14958 28.058012H224.76088V32.471756H213.2608C211.20928 32.471756 208.78492 32.285204 206.609272 32.09864C215.99584 41.92052 222.77176 49.31804 222.77176 56.77772C222.77176 63.80204 218.2336 68.46428 210.8986 68.46428C205.73896 68.46428 202.195516 66.03992 198.900832 62.43452L201.822712 59.51264C204.122704 62.18588 206.982088 64.2992 210.27676 64.2992C215.31208 64.2992 217.7986 61.06676 217.7986 56.52896C217.7986 50.12612 211.08484 42.97736 199.14958 31.103948V28.058012ZM232.47088 28.058012H254.84956V32.285204H246.64432V67.71836H242.72776C240.55204 66.413 237.9412 65.41832 234.3358 64.79672V61.50212H241.54672V32.285204H232.47088V28.058012Z' fill='#fff'/>
</g>
</g>
</svg>