<?xml version='1.0' encoding='UTF-8'?>
<!-- This file was generated by dvisvgm 2.9.1 -->
<svg version='1.1' xmlns='http://www.w3.org/2000/svg' xmlns:xlink='http://www.w3.org/1999/xlink' width='344.711pt' height='181.614pt' viewBox='0 -181.614 344.711 181.614'>
<g id='page1'>
<g transform='matrix(1 0 0 -1 0 0)'>
<path d='M138.77632 150.819779C144.1319 150.819779 146.3494 154.66915 146.3494 159.39728V178.7695H142.8348V159.73197C142.8348 155.5479 141.3704 153.87415 138.44163 153.87415C136.47507 153.87415 134.92694 154.79478 133.7135 156.9704L131.20319 155.21322C132.79288 152.32603 135.3035 150.819779 138.77632 150.819779ZM159.3628 150.819779C162.1662 150.819779 164.1747 152.284154 166.0575 154.50197H166.1831L166.4759 151.321966H169.3209V171.6567H165.89V157.22165C163.9653 154.83665 162.5009 153.79072 160.4091 153.79072C157.7312 153.79072 156.6016 155.42228 156.6016 159.22978V171.6567H153.1287V158.76978C153.1287 153.58134 155.0534 150.819779 159.3628 150.819779ZM179.8241 150.819779C180.7448 150.819779 181.3307 150.945404 181.7907 151.154466L181.3307 153.74884C180.9541 153.66509 180.7866 153.66509 180.5776 153.66509C180.0754 153.66509 179.6151 154.08353 179.6151 155.17134V181.1126H176.1841V155.42228C176.1841 152.45165 177.2301 150.819779 179.8241 150.819779ZM186.8541 151.321966H190.285V171.6567H186.8541V151.321966ZM188.6112 175.8407C189.9503 175.8407 190.9962 176.761 190.9962 178.0582C190.9962 179.3973 189.9503 180.2757 188.6112 180.2757C187.2725 180.2757 186.2266 179.3973 186.2266 178.0582C186.2266 176.761 187.2725 175.8407 188.6112 175.8407ZM201.8337 150.819779C204.3859 150.819779 206.6452 152.158841 208.5699 153.74884H208.6955L208.9884 151.321966H211.8337V163.7904C211.8337 168.8532 209.7415 172.1585 204.7624 172.1585C201.499 172.1585 198.6537 170.736 196.7708 169.5226L198.1099 167.1379C199.6996 168.2257 201.8337 169.3135 204.1768 169.3135C207.524 169.3135 208.3608 166.8029 208.3608 164.2088C199.6996 163.2467 195.8921 161.02915 195.8921 156.59384C195.8921 152.95384 198.4446 150.819779 201.8337 150.819779ZM202.8377 153.58134C200.8293 153.58134 199.2396 154.54384 199.2396 156.84509C199.2396 159.43915 201.5824 161.11259 208.3608 161.9495V156.30103C206.3943 154.54384 204.8043 153.58134 202.8377 153.58134Z' fill='#fff'/>
<path d='M108.1676 97.523009H112.226L120.9292 124.9705H117.3726L112.9792 110.1589C112.017 106.8952 111.3476 104.30113 110.3432 101.07957H110.176C109.12979 104.30113 108.50229 106.8952 107.49822 110.1589L103.10479 124.9705H99.381036L108.1676 97.523009ZM124.3611 97.523009H127.7921V117.8577H124.3611V97.523009ZM126.1183 122.0418C127.4574 122.0418 128.5033 122.9621 128.5033 124.2593C128.5033 125.5983 127.4574 126.4768 126.1183 126.4768C124.7796 126.4768 123.7336 125.5983 123.7336 124.2593C123.7336 122.9621 124.7796 122.0418 126.1183 122.0418ZM132.5207 97.523009H147.9179V100.32645H136.872L147.5832 116.0168V117.8577H133.6923V115.0543H143.232L132.5207 99.36395V97.523009Z' fill='#fff'/>
<path d='M160.2571 97.020821C163.0187 97.020821 165.1946 97.983321 166.9518 99.11301L165.7384 101.37238C164.2321 100.40988 162.6003 99.78238 160.6756 99.78238C156.7846 99.78238 154.1484 102.54395 153.8974 106.85363H167.6212C167.7049 107.35551 167.7468 108.1086 167.7468 108.8199C167.7468 114.6358 164.8181 118.3596 159.6296 118.3596C154.9853 118.3596 150.5084 114.3011 150.5084 107.6486C150.5084 100.99582 154.8181 97.020821 160.2571 97.020821ZM153.8556 109.3221C154.274 113.3389 156.8681 115.6402 159.7134 115.6402C162.8934 115.6402 164.7343 113.4224 164.7343 109.3221H153.8556Z' fill='#fff'/>
<path d='M187.4134 97.020821C190.6349 97.020821 193.229 98.276134 195.3212 100.15895C197.5387 98.61082 199.714 97.564884 201.639 97.020821L202.56 99.86613C201.053 100.28457 199.2962 101.20488 197.4131 102.50207C199.589 105.38895 201.137 108.7364 202.225 112.3346H199.0031C198.1662 109.1964 196.8274 106.47707 195.1537 104.21738C192.5596 106.39332 190.0074 109.113 188.2084 111.9161C191.2628 114.1339 194.4006 116.4352 194.4006 120.0333C194.4006 123.2552 192.3924 125.4727 189.0031 125.4727C185.1956 125.4727 182.6434 122.6274 182.6434 118.9874C182.6434 116.9789 183.3128 114.8033 184.4424 112.5439C181.6393 110.6193 179.0449 108.318 179.0449 104.63582C179.0449 100.20082 182.4343 97.020821 187.4134 97.020821ZM185.614 119.0293C185.614 121.2886 186.9531 123.0039 189.0031 123.0039C190.8443 123.0039 191.5974 121.5814 191.5974 119.9914C191.5974 117.5649 189.4215 115.8911 186.9112 114.2174C186.1162 115.8911 185.614 117.523 185.614 119.0293ZM187.7899 99.78238C184.7771 99.78238 182.3924 101.79082 182.3924 104.8452C182.3924 106.97895 183.8987 108.6108 185.8234 110.1589C187.7481 107.18832 190.3421 104.34301 193.0199 101.99988C191.4299 100.61926 189.6728 99.78238 187.7899 99.78238Z' fill='#fff'/>
<path d='M215.321 97.523009H218.794V124.9705H215.321V97.523009ZM231.054 112.8786C232.058 115.933 232.937 118.9455 233.773 122.1255H233.941C234.819 118.9455 235.698 115.933 236.702 112.8786L237.999 108.6946H229.757L231.054 112.8786ZM222.686 97.523009H226.242L228.878 105.89113H238.878L241.472 97.523009H245.196L235.907 124.9705H231.974L222.686 97.523009Z' fill='#fff'/>
<path d='M88.740556 28.058012H114.35176V32.471756H102.8518C100.80028 32.471756 98.37592 32.285204 96.200248 32.09864C105.58684 41.92052 112.36276 49.31804 112.36276 56.77772C112.36276 63.80204 107.8246 68.46428 100.4896 68.46428C95.329936 68.46428 91.786492 66.03992 88.491808 62.43452L91.413688 59.51264C93.71368 62.18588 96.573064 64.2992 99.86776 64.2992C104.90308 64.2992 107.3896 61.06676 107.3896 56.52896C107.3896 50.12612 100.67584 42.97736 88.740556 31.103948V28.058012Z' fill='#fff'/>
<path d='M145.921812 74.992184C131.179682 74.992184 119.191405 62.914063 119.191405 48.058532C119.191405 35.628884 127.597651 25.14056 138.9765 22.054664V22.093736C140.582016 21.706976 142.312536 21.531284 144.031308 21.531284C147.675828 21.531284 151.249992 22.324208 153.410172 23.527388C156.808644 25.421852 159.101616 27.984368 160.22652 31.14458C161.433528 34.531304 161.304696 37.867208 159.851508 41.058572C159.085908 42.726524 157.886688 44.42576 156.265596 46.128956L152.875044 49.675796C149.480532 53.218808 148.269564 54.8828 147.839904 55.683644C147.339888 56.56646 146.85162 57.882764 147.316392 59.187452C147.574188 59.9219 148.355496 61.292984 150.68754 62.320314C152.050836 62.921877 152.7969 63.039054 153.097596 63.066404L153.84762 65.999998C149.738328 67.226556 141.230532 67.101565 137.378904 58.089872C136.24608 55.441424 136.191432 52.546928 137.222616 49.730444C138.136716 47.246072 140.070252 44.47262 143.140572 41.249972L146.062524 38.171864C148.19142 35.949248 148.976556 34.816424 149.253888 34.265588C149.789016 33.187544 149.828088 32.035184 149.367144 30.746072C148.945272 29.55464 148.324212 28.812536 147.164064 28.101584C146.519508 27.707036 143.066388 25.800824 138.339864 27.167948V27.16412C129.589848 30.289088 123.312496 38.62502 123.312496 48.45308C123.312496 60.941468 133.433556 71.062502 145.921812 71.062502C158.4102 71.062502 168.535128 60.941468 168.535128 48.45308C168.535128 44.121104 167.316372 40.074248 165.203184 36.636704L168.300828 33.35162C171.050784 37.585916 172.65234 42.632804 172.65234 48.058532C172.65234 62.914063 160.6641 74.992184 145.921812 74.992184Z' fill='#009fe3'/>
<path d='M173.082562 21.220776H176.81256L193.41012 75.30324H189.6804L173.082562 21.220776Z' fill='#fff'/>
<path d='M199.14958 28.058012H224.76088V32.471756H213.2608C211.20928 32.471756 208.78492 32.285204 206.609272 32.09864C215.99584 41.92052 222.77176 49.31804 222.77176 56.77772C222.77176 63.80204 218.2336 68.46428 210.8986 68.46428C205.73896 68.46428 202.195516 66.03992 198.900832 62.43452L201.822712 59.51264C204.122704 62.18588 206.982088 64.2992 210.27676 64.2992C215.31208 64.2992 217.7986 61.06676 217.7986 56.52896C217.7986 50.12612 211.08484 42.97736 199.14958 31.103948V28.058012ZM232.47088 28.058012H254.84956V32.285204H246.64432V67.71836H242.72776C240.55204 66.413 237.9412 65.41832 234.3358 64.79672V61.50212H241.54672V32.285204H232.47088V28.058012Z' fill='#fff'/>
</g>
</g>
</svg>