<?xml version='1.0' encoding='UTF-8'?>
<!-- This file was generated by dvisvgm 2.9.1 -->
<svg version='1.1' xmlns='http://www.w3.org/2000/svg' xmlns:xlink='http://www.w3.org/1999/xlink' width='344.711pt' height='181.614pt' viewBox='0 -181.614 344.711 181.614'>
<g id='page1'>
<g transform='matrix(1 0 0 -1 0 0)'>
<path d='M123.69162 151.321966H139.1729V154.29259H127.16443V178.7695H123.69162V151.321966Z' fill='#fff'/>
<path d='M151.4294 150.819779C154.1909 150.819779 156.3669 151.782279 158.124 152.91197L156.9106 155.17134C155.4044 154.20884 153.7725 153.58134 151.8478 153.58134C147.9569 153.58134 145.3206 156.3429 145.0697 160.65259H158.7934C158.8772 161.15447 158.919 161.9076 158.919 162.6188C158.919 168.4348 155.9903 172.1585 150.8019 172.1585C146.1575 172.1585 141.6806 168.1001 141.6806 161.4476C141.6806 154.79478 145.9903 150.819779 151.4294 150.819779ZM145.0278 163.121C145.4462 167.1379 148.0403 169.4392 150.8856 169.4392C154.0656 169.4392 155.9065 167.2213 155.9065 163.121H145.0278ZM163.941 151.321966H167.3719V166.0498C169.4222 168.1001 170.8447 169.1879 172.9366 169.1879C175.6144 169.1879 176.786 167.5563 176.786 163.7485V151.321966H180.2169V164.2088C180.2169 169.3973 178.2922 172.1585 174.0247 172.1585C171.2213 172.1585 169.1291 170.6523 167.2044 168.7276H167.0791L166.7863 171.6567H163.941V151.321966ZM186.8291 151.321966H190.2182V156.67759L194.0257 161.11259L199.9672 151.321966H203.7329L195.9922 163.4976L202.8122 171.6567H199.0047L190.3438 160.9454H190.2182V181.1126H186.8291V151.321966Z' fill='#fff'/>
<path d='M211.8062 150.819779C214.3584 150.819779 216.6178 152.158841 218.5425 153.74884H218.6681L218.9609 151.321966H221.806V163.7904C221.806 168.8532 219.714 172.1585 214.735 172.1585C211.4715 172.1585 208.6262 170.736 206.7434 169.5226L208.0825 167.1379C209.6722 168.2257 211.8062 169.3135 214.1494 169.3135C217.4965 169.3135 218.3334 166.8029 218.3334 164.2088C209.6722 163.2467 205.8647 161.02915 205.8647 156.59384C205.8647 152.95384 208.4172 150.819779 211.8062 150.819779ZM212.8103 153.58134C210.8019 153.58134 209.2122 154.54384 209.2122 156.84509C209.2122 159.43915 211.555 161.11259 218.3334 161.9495V156.30103C216.3669 154.54384 214.7769 153.58134 212.8103 153.58134Z' fill='#fff'/>
<path d='M128.25265 97.523009H136.9973C143.148 97.523009 147.4158 100.15895 147.4158 105.55645C147.4158 109.3221 145.1145 111.4977 141.8092 112.1255V112.2927C144.4033 113.1296 145.8258 115.5564 145.8258 118.2761C145.8258 123.0877 141.9764 124.9705 136.4117 124.9705H128.25265V97.523009ZM131.72546 113.2971V122.2089H135.9514C140.2192 122.2089 142.3948 120.9958 142.3948 117.8158C142.3948 115.0124 140.4702 113.2971 135.7839 113.2971H131.72546ZM131.72546 100.28457V110.6193H136.4955C141.307 110.6193 143.9848 109.0711 143.9848 105.68207C143.9848 101.99988 141.2233 100.28457 136.4955 100.28457H131.72546ZM158.4629 97.020821C161.2663 97.020821 163.2748 98.485196 165.1576 100.70301H165.2832L165.576 97.523009H168.421V117.8577H164.9901V103.4227C163.0654 101.0377 161.601 99.99176 159.5091 99.99176C156.8313 99.99176 155.7016 101.62332 155.7016 105.43082V117.8577H152.2288V104.97082C152.2288 99.78238 154.1535 97.020821 158.4629 97.020821ZM175.6189 97.523009H179.0917V110.4518H191.8533V97.523009H195.3677V124.9705H191.8533V113.4643H179.0917V124.9705H175.6189V97.523009ZM207.2521 97.020821C209.8043 97.020821 212.0637 98.359884 213.9884 99.94988H214.114L214.4068 97.523009H217.2521V109.9914C217.2521 115.0543 215.1599 118.3596 210.1809 118.3596C206.9174 118.3596 204.0721 116.9371 202.1893 115.7236L203.5284 113.3389C205.118 114.4268 207.2521 115.5146 209.5952 115.5146C212.9424 115.5146 213.7793 113.0039 213.7793 110.4099C205.118 109.4477 201.3105 107.2302 201.3105 102.79488C201.3105 99.15488 203.863 97.020821 207.2521 97.020821ZM208.2562 99.78238C206.2477 99.78238 204.658 100.74488 204.658 103.04613C204.658 105.6402 207.0009 107.31363 213.7793 108.1505V102.50207C211.8127 100.74488 210.2227 99.78238 208.2562 99.78238Z' fill='#fff'/>
<path d='M88.740556 28.058012H114.35176V32.471756H102.8518C100.80028 32.471756 98.37592 32.285204 96.200248 32.09864C105.58684 41.92052 112.36276 49.31804 112.36276 56.77772C112.36276 63.80204 107.8246 68.46428 100.4896 68.46428C95.329936 68.46428 91.786492 66.03992 88.491808 62.43452L91.413688 59.51264C93.71368 62.18588 96.573064 64.2992 99.86776 64.2992C104.90308 64.2992 107.3896 61.06676 107.3896 56.52896C107.3896 50.12612 100.67584 42.97736 88.740556 31.103948V28.058012Z' fill='#fff'/>
<path d='M145.921812 74.992184C131.179682 74.992184 119.191405 62.914063 119.191405 48.058532C119.191405 35.628884 127.597651 25.14056 138.9765 22.054664V22.093736C140.582016 21.706976 142.312536 21.531284 144.031308 21.531284C147.675828 21.531284 151.249992 22.324208 153.410172 23.527388C156.808644 25.421852 159.101616 27.984368 160.22652 31.14458C161.433528 34.531304 161.304696 37.867208 159.851508 41.058572C159.085908 42.726524 157.886688 44.42576 156.265596 46.128956L152.875044 49.675796C149.480532 53.218808 148.269564 54.8828 147.839904 55.683644C147.339888 56.56646 146.85162 57.882764 147.316392 59.187452C147.574188 59.9219 148.355496 61.292984 150.68754 62.320314C152.050836 62.921877 152.7969 63.039054 153.097596 63.066404L153.84762 65.999998C149.738328 67.226556 141.230532 67.101565 137.378904 58.089872C136.24608 55.441424 136.191432 52.546928 137.222616 49.730444C138.136716 47.246072 140.070252 44.47262 143.140572 41.249972L146.062524 38.171864C148.19142 35.949248 148.976556 34.816424 149.253888 34.265588C149.789016 33.187544 149.828088 32.035184 149.367144 30.746072C148.945272 29.55464 148.324212 28.812536 147.164064 28.101584C146.519508 27.707036 143.066388 25.800824 138.339864 27.167948V27.16412C129.589848 30.289088 123.312496 38.62502 123.312496 48.45308C123.312496 60.941468 133.433556 71.062502 145.921812 71.062502C158.4102 71.062502 168.535128 60.941468 168.535128 48.45308C168.535128 44.121104 167.316372 40.074248 165.203184 36.636704L168.300828 33.35162C171.050784 37.585916 172.65234 42.632804 172.65234 48.058532C172.65234 62.914063 160.6641 74.992184 145.921812 74.992184Z' fill='#009fe3'/>
<path d='M173.082562 21.220776H176.81256L193.41012 75.30324H189.6804L173.082562 21.220776Z' fill='#fff'/>
<path d='M199.14958 28.058012H224.76088V32.471756H213.2608C211.20928 32.471756 208.78492 32.285204 206.609272 32.09864C215.99584 41.92052 222.77176 49.31804 222.77176 56.77772C222.77176 63.80204 218.2336 68.46428 210.8986 68.46428C205.73896 68.46428 202.195516 66.03992 198.900832 62.43452L201.822712 59.51264C204.122704 62.18588 206.982088 64.2992 210.27676 64.2992C215.31208 64.2992 217.7986 61.06676 217.7986 56.52896C217.7986 50.12612 211.08484 42.97736 199.14958 31.103948V28.058012ZM232.47088 28.058012H254.84956V32.285204H246.64432V67.71836H242.72776C240.55204 66.413 237.9412 65.41832 234.3358 64.79672V61.50212H241.54672V32.285204H232.47088V28.058012Z' fill='#fff'/>
</g>
</g>
</svg>